<svg width="977" height="531" viewBox="0 0 977 531" fill="none" xmlns="http://www.w3.org/2000/svg">
<path d="M923.7 481.23H51.7" stroke="white" stroke-width="2" stroke-miterlimit="10"/>
<path d="M343 481.52V63" stroke="#CFCFCF" stroke-width="2" stroke-miterlimit="10" stroke-dasharray="11.66 11.66"/>
<path d="M634 481.52V63" stroke="#CFCFCF" stroke-width="2" stroke-miterlimit="10" stroke-dasharray="11.66 11.66"/>
<path d="M422.172 9.216V14.028H428.244V16.512H422.172V21.42H429.876V24H418.932V6.648H429.876V9.216H422.172ZM434.783 13.2C435.031 12.952 435.291 12.724 435.563 12.516C435.843 12.3 436.135 12.12 436.439 11.976C436.751 11.824 437.083 11.708 437.435 11.628C437.787 11.54 438.171 11.496 438.587 11.496C439.259 11.496 439.855 11.612 440.375 11.844C440.895 12.068 441.327 12.388 441.671 12.804C442.023 13.212 442.287 13.704 442.463 14.28C442.647 14.848 442.739 15.476 442.739 16.164V24H439.775V16.164C439.775 15.412 439.603 14.832 439.259 14.424C438.915 14.008 438.391 13.8 437.687 13.8C437.175 13.8 436.695 13.916 436.247 14.148C435.799 14.38 435.375 14.696 434.975 15.096V24H432.011V11.688H433.823C434.207 11.688 434.459 11.868 434.579 12.228L434.783 13.2ZM450.058 17.544C450.426 17.544 450.746 17.496 451.018 17.4C451.29 17.296 451.514 17.156 451.69 16.98C451.874 16.804 452.01 16.592 452.098 16.344C452.194 16.096 452.242 15.824 452.242 15.528C452.242 14.92 452.058 14.44 451.69 14.088C451.33 13.728 450.786 13.548 450.058 13.548C449.33 13.548 448.782 13.728 448.414 14.088C448.054 14.44 447.874 14.92 447.874 15.528C447.874 15.816 447.918 16.084 448.006 16.332C448.102 16.58 448.238 16.796 448.414 16.98C448.598 17.156 448.826 17.296 449.098 17.4C449.378 17.496 449.698 17.544 450.058 17.544ZM453.406 24.552C453.406 24.312 453.334 24.116 453.19 23.964C453.046 23.812 452.85 23.696 452.602 23.616C452.354 23.528 452.062 23.464 451.726 23.424C451.398 23.384 451.046 23.356 450.67 23.34C450.302 23.316 449.918 23.296 449.518 23.28C449.126 23.264 448.742 23.232 448.366 23.184C448.038 23.368 447.77 23.584 447.562 23.832C447.362 24.08 447.262 24.368 447.262 24.696C447.262 24.912 447.314 25.112 447.418 25.296C447.53 25.488 447.702 25.652 447.934 25.788C448.174 25.924 448.482 26.028 448.858 26.1C449.234 26.18 449.694 26.22 450.238 26.22C450.79 26.22 451.266 26.176 451.666 26.088C452.066 26.008 452.394 25.892 452.65 25.74C452.914 25.596 453.106 25.42 453.226 25.212C453.346 25.012 453.406 24.792 453.406 24.552ZM456.358 12.108V13.212C456.358 13.564 456.146 13.78 455.722 13.86L454.618 14.064C454.786 14.488 454.87 14.952 454.87 15.456C454.87 16.064 454.746 16.616 454.498 17.112C454.258 17.6 453.922 18.016 453.49 18.36C453.058 18.704 452.546 18.972 451.954 19.164C451.37 19.348 450.738 19.44 450.058 19.44C449.818 19.44 449.586 19.428 449.362 19.404C449.138 19.38 448.918 19.348 448.702 19.308C448.318 19.54 448.126 19.8 448.126 20.088C448.126 20.336 448.238 20.52 448.462 20.64C448.694 20.752 448.998 20.832 449.374 20.88C449.75 20.928 450.178 20.96 450.658 20.976C451.138 20.984 451.63 21.008 452.134 21.048C452.638 21.088 453.13 21.16 453.61 21.264C454.09 21.36 454.518 21.516 454.894 21.732C455.27 21.948 455.57 22.244 455.794 22.62C456.026 22.988 456.142 23.464 456.142 24.048C456.142 24.592 456.006 25.12 455.734 25.632C455.47 26.144 455.082 26.6 454.57 27C454.066 27.4 453.442 27.72 452.698 27.96C451.962 28.208 451.122 28.332 450.178 28.332C449.25 28.332 448.442 28.24 447.754 28.056C447.066 27.88 446.494 27.64 446.038 27.336C445.582 27.04 445.242 26.696 445.018 26.304C444.794 25.912 444.682 25.504 444.682 25.08C444.682 24.504 444.854 24.024 445.198 23.64C445.55 23.248 446.03 22.936 446.638 22.704C446.31 22.536 446.05 22.312 445.858 22.032C445.666 21.752 445.57 21.384 445.57 20.928C445.57 20.744 445.602 20.556 445.666 20.364C445.738 20.164 445.838 19.968 445.966 19.776C446.102 19.584 446.27 19.404 446.47 19.236C446.67 19.06 446.906 18.904 447.178 18.768C446.554 18.432 446.062 17.984 445.702 17.424C445.35 16.864 445.174 16.208 445.174 15.456C445.174 14.848 445.294 14.3 445.534 13.812C445.782 13.316 446.122 12.896 446.554 12.552C446.994 12.2 447.51 11.932 448.102 11.748C448.702 11.564 449.354 11.472 450.058 11.472C450.586 11.472 451.082 11.528 451.546 11.64C452.01 11.744 452.434 11.9 452.818 12.108H456.358ZM464.741 18.744C463.885 18.784 463.165 18.86 462.581 18.972C461.997 19.076 461.529 19.212 461.177 19.38C460.825 19.548 460.573 19.744 460.421 19.968C460.269 20.192 460.193 20.436 460.193 20.7C460.193 21.22 460.345 21.592 460.649 21.816C460.961 22.04 461.365 22.152 461.861 22.152C462.469 22.152 462.993 22.044 463.433 21.828C463.881 21.604 464.317 21.268 464.741 20.82V18.744ZM457.949 13.404C459.365 12.108 461.069 11.46 463.061 11.46C463.781 11.46 464.425 11.58 464.993 11.82C465.561 12.052 466.041 12.38 466.433 12.804C466.825 13.22 467.121 13.72 467.321 14.304C467.529 14.888 467.633 15.528 467.633 16.224V24H466.289C466.009 24 465.793 23.96 465.641 23.88C465.489 23.792 465.369 23.62 465.281 23.364L465.017 22.476C464.705 22.756 464.401 23.004 464.105 23.22C463.809 23.428 463.501 23.604 463.181 23.748C462.861 23.892 462.517 24 462.149 24.072C461.789 24.152 461.389 24.192 460.949 24.192C460.429 24.192 459.949 24.124 459.509 23.988C459.069 23.844 458.689 23.632 458.369 23.352C458.049 23.072 457.801 22.724 457.625 22.308C457.449 21.892 457.361 21.408 457.361 20.856C457.361 20.544 457.413 20.236 457.517 19.932C457.621 19.62 457.789 19.324 458.021 19.044C458.261 18.764 458.569 18.5 458.945 18.252C459.321 18.004 459.781 17.788 460.325 17.604C460.877 17.42 461.517 17.272 462.245 17.16C462.973 17.04 463.805 16.968 464.741 16.944V16.224C464.741 15.4 464.565 14.792 464.213 14.4C463.861 14 463.353 13.8 462.689 13.8C462.209 13.8 461.809 13.856 461.489 13.968C461.177 14.08 460.901 14.208 460.661 14.352C460.421 14.488 460.201 14.612 460.001 14.724C459.809 14.836 459.593 14.892 459.353 14.892C459.145 14.892 458.969 14.84 458.825 14.736C458.681 14.624 458.565 14.496 458.477 14.352L457.949 13.404ZM474.925 17.544C475.293 17.544 475.613 17.496 475.885 17.4C476.157 17.296 476.381 17.156 476.557 16.98C476.741 16.804 476.877 16.592 476.965 16.344C477.061 16.096 477.109 15.824 477.109 15.528C477.109 14.92 476.925 14.44 476.557 14.088C476.197 13.728 475.653 13.548 474.925 13.548C474.197 13.548 473.649 13.728 473.281 14.088C472.921 14.44 472.741 14.92 472.741 15.528C472.741 15.816 472.785 16.084 472.873 16.332C472.969 16.58 473.105 16.796 473.281 16.98C473.465 17.156 473.693 17.296 473.965 17.4C474.245 17.496 474.565 17.544 474.925 17.544ZM478.273 24.552C478.273 24.312 478.201 24.116 478.057 23.964C477.913 23.812 477.717 23.696 477.469 23.616C477.221 23.528 476.929 23.464 476.593 23.424C476.265 23.384 475.913 23.356 475.537 23.34C475.169 23.316 474.785 23.296 474.385 23.28C473.993 23.264 473.609 23.232 473.233 23.184C472.905 23.368 472.637 23.584 472.429 23.832C472.229 24.08 472.129 24.368 472.129 24.696C472.129 24.912 472.181 25.112 472.285 25.296C472.397 25.488 472.569 25.652 472.801 25.788C473.041 25.924 473.349 26.028 473.725 26.1C474.101 26.18 474.561 26.22 475.105 26.22C475.657 26.22 476.133 26.176 476.533 26.088C476.933 26.008 477.261 25.892 477.517 25.74C477.781 25.596 477.973 25.42 478.093 25.212C478.213 25.012 478.273 24.792 478.273 24.552ZM481.225 12.108V13.212C481.225 13.564 481.013 13.78 480.589 13.86L479.485 14.064C479.653 14.488 479.737 14.952 479.737 15.456C479.737 16.064 479.613 16.616 479.365 17.112C479.125 17.6 478.789 18.016 478.357 18.36C477.925 18.704 477.413 18.972 476.821 19.164C476.237 19.348 475.605 19.44 474.925 19.44C474.685 19.44 474.453 19.428 474.229 19.404C474.005 19.38 473.785 19.348 473.569 19.308C473.185 19.54 472.993 19.8 472.993 20.088C472.993 20.336 473.105 20.52 473.329 20.64C473.561 20.752 473.865 20.832 474.241 20.88C474.617 20.928 475.045 20.96 475.525 20.976C476.005 20.984 476.497 21.008 477.001 21.048C477.505 21.088 477.997 21.16 478.477 21.264C478.957 21.36 479.385 21.516 479.761 21.732C480.137 21.948 480.437 22.244 480.661 22.62C480.893 22.988 481.009 23.464 481.009 24.048C481.009 24.592 480.873 25.12 480.601 25.632C480.337 26.144 479.949 26.6 479.437 27C478.933 27.4 478.309 27.72 477.565 27.96C476.829 28.208 475.989 28.332 475.045 28.332C474.117 28.332 473.309 28.24 472.621 28.056C471.933 27.88 471.361 27.64 470.905 27.336C470.449 27.04 470.109 26.696 469.885 26.304C469.661 25.912 469.549 25.504 469.549 25.08C469.549 24.504 469.721 24.024 470.065 23.64C470.417 23.248 470.897 22.936 471.505 22.704C471.177 22.536 470.917 22.312 470.725 22.032C470.533 21.752 470.437 21.384 470.437 20.928C470.437 20.744 470.469 20.556 470.533 20.364C470.605 20.164 470.705 19.968 470.833 19.776C470.969 19.584 471.137 19.404 471.337 19.236C471.537 19.06 471.773 18.904 472.045 18.768C471.421 18.432 470.929 17.984 470.569 17.424C470.217 16.864 470.041 16.208 470.041 15.456C470.041 14.848 470.161 14.3 470.401 13.812C470.649 13.316 470.989 12.896 471.421 12.552C471.861 12.2 472.377 11.932 472.969 11.748C473.569 11.564 474.221 11.472 474.925 11.472C475.453 11.472 475.949 11.528 476.413 11.64C476.877 11.744 477.301 11.9 477.685 12.108H481.225ZM490.826 16.428C490.826 16.044 490.77 15.684 490.658 15.348C490.554 15.004 490.394 14.704 490.178 14.448C489.962 14.192 489.686 13.992 489.35 13.848C489.022 13.696 488.638 13.62 488.198 13.62C487.342 13.62 486.666 13.864 486.17 14.352C485.682 14.84 485.37 15.532 485.234 16.428H490.826ZM485.174 18.216C485.222 18.848 485.334 19.396 485.51 19.86C485.686 20.316 485.918 20.696 486.206 21C486.494 21.296 486.834 21.52 487.226 21.672C487.626 21.816 488.066 21.888 488.546 21.888C489.026 21.888 489.438 21.832 489.782 21.72C490.134 21.608 490.438 21.484 490.694 21.348C490.958 21.212 491.186 21.088 491.378 20.976C491.578 20.864 491.77 20.808 491.954 20.808C492.202 20.808 492.386 20.9 492.506 21.084L493.358 22.164C493.03 22.548 492.662 22.872 492.254 23.136C491.846 23.392 491.418 23.6 490.97 23.76C490.53 23.912 490.078 24.02 489.614 24.084C489.158 24.148 488.714 24.18 488.282 24.18C487.426 24.18 486.63 24.04 485.894 23.76C485.158 23.472 484.518 23.052 483.974 22.5C483.43 21.94 483.002 21.252 482.69 20.436C482.378 19.612 482.222 18.66 482.222 17.58C482.222 16.74 482.358 15.952 482.63 15.216C482.902 14.472 483.29 13.828 483.794 13.284C484.306 12.732 484.926 12.296 485.654 11.976C486.39 11.656 487.218 11.496 488.138 11.496C488.914 11.496 489.63 11.62 490.286 11.868C490.942 12.116 491.506 12.48 491.978 12.96C492.45 13.432 492.818 14.016 493.082 14.712C493.354 15.4 493.49 16.188 493.49 17.076C493.49 17.524 493.442 17.828 493.346 17.988C493.25 18.14 493.066 18.216 492.794 18.216H485.174ZM495.714 24V11.688H497.526C497.91 11.688 498.162 11.868 498.282 12.228L498.474 13.14C498.69 12.9 498.914 12.68 499.146 12.48C499.386 12.28 499.638 12.108 499.902 11.964C500.174 11.82 500.462 11.708 500.766 11.628C501.078 11.54 501.418 11.496 501.786 11.496C502.562 11.496 503.198 11.708 503.694 12.132C504.198 12.548 504.574 13.104 504.822 13.8C505.014 13.392 505.254 13.044 505.542 12.756C505.83 12.46 506.146 12.22 506.49 12.036C506.834 11.852 507.198 11.716 507.582 11.628C507.974 11.54 508.366 11.496 508.758 11.496C509.438 11.496 510.042 11.6 510.57 11.808C511.098 12.016 511.542 12.32 511.902 12.72C512.262 13.12 512.534 13.608 512.718 14.184C512.91 14.76 513.006 15.42 513.006 16.164V24H510.042V16.164C510.042 15.38 509.87 14.792 509.526 14.4C509.182 14 508.678 13.8 508.014 13.8C507.71 13.8 507.426 13.852 507.162 13.956C506.906 14.06 506.678 14.212 506.478 14.412C506.286 14.604 506.134 14.848 506.022 15.144C505.91 15.44 505.854 15.78 505.854 16.164V24H502.878V16.164C502.878 15.34 502.71 14.74 502.374 14.364C502.046 13.988 501.562 13.8 500.922 13.8C500.49 13.8 500.086 13.908 499.71 14.124C499.342 14.332 498.998 14.62 498.678 14.988V24H495.714ZM523.755 16.428C523.755 16.044 523.699 15.684 523.587 15.348C523.483 15.004 523.323 14.704 523.107 14.448C522.891 14.192 522.615 13.992 522.279 13.848C521.951 13.696 521.567 13.62 521.127 13.62C520.271 13.62 519.595 13.864 519.099 14.352C518.611 14.84 518.299 15.532 518.163 16.428H523.755ZM518.103 18.216C518.151 18.848 518.263 19.396 518.439 19.86C518.615 20.316 518.847 20.696 519.135 21C519.423 21.296 519.763 21.52 520.155 21.672C520.555 21.816 520.995 21.888 521.475 21.888C521.955 21.888 522.367 21.832 522.711 21.72C523.063 21.608 523.367 21.484 523.623 21.348C523.887 21.212 524.115 21.088 524.307 20.976C524.507 20.864 524.699 20.808 524.883 20.808C525.131 20.808 525.315 20.9 525.435 21.084L526.287 22.164C525.959 22.548 525.591 22.872 525.183 23.136C524.775 23.392 524.347 23.6 523.899 23.76C523.459 23.912 523.007 24.02 522.543 24.084C522.087 24.148 521.643 24.18 521.211 24.18C520.355 24.18 519.559 24.04 518.823 23.76C518.087 23.472 517.447 23.052 516.903 22.5C516.359 21.94 515.931 21.252 515.619 20.436C515.307 19.612 515.151 18.66 515.151 17.58C515.151 16.74 515.287 15.952 515.559 15.216C515.831 14.472 516.219 13.828 516.723 13.284C517.235 12.732 517.855 12.296 518.583 11.976C519.319 11.656 520.147 11.496 521.067 11.496C521.843 11.496 522.559 11.62 523.215 11.868C523.871 12.116 524.435 12.48 524.907 12.96C525.379 13.432 525.747 14.016 526.011 14.712C526.283 15.4 526.419 16.188 526.419 17.076C526.419 17.524 526.371 17.828 526.275 17.988C526.179 18.14 525.995 18.216 525.723 18.216H518.103ZM531.416 13.2C531.664 12.952 531.924 12.724 532.196 12.516C532.476 12.3 532.768 12.12 533.072 11.976C533.384 11.824 533.716 11.708 534.068 11.628C534.42 11.54 534.804 11.496 535.22 11.496C535.892 11.496 536.488 11.612 537.008 11.844C537.528 12.068 537.96 12.388 538.304 12.804C538.656 13.212 538.92 13.704 539.096 14.28C539.28 14.848 539.372 15.476 539.372 16.164V24H536.408V16.164C536.408 15.412 536.236 14.832 535.892 14.424C535.548 14.008 535.024 13.8 534.32 13.8C533.808 13.8 533.328 13.916 532.88 14.148C532.432 14.38 532.008 14.696 531.608 15.096V24H528.644V11.688H530.456C530.84 11.688 531.092 11.868 531.212 12.228L531.416 13.2ZM546.131 24.192C545.059 24.192 544.235 23.892 543.659 23.292C543.091 22.684 542.807 21.848 542.807 20.784V13.908H541.547C541.387 13.908 541.251 13.856 541.139 13.752C541.027 13.648 540.971 13.492 540.971 13.284V12.108L542.951 11.784L543.575 8.424C543.615 8.264 543.691 8.14 543.803 8.052C543.915 7.964 544.059 7.92 544.235 7.92H545.771V11.796H549.059V13.908H545.771V20.58C545.771 20.964 545.863 21.264 546.047 21.48C546.239 21.696 546.499 21.804 546.827 21.804C547.011 21.804 547.163 21.784 547.283 21.744C547.411 21.696 547.519 21.648 547.607 21.6C547.703 21.552 547.787 21.508 547.859 21.468C547.931 21.42 548.003 21.396 548.075 21.396C548.163 21.396 548.235 21.42 548.291 21.468C548.347 21.508 548.407 21.572 548.471 21.66L549.359 23.1C548.927 23.46 548.431 23.732 547.871 23.916C547.311 24.1 546.731 24.192 546.131 24.192Z" fill="white"/>
<path d="M427.172 446.804C427.076 446.972 426.972 447.096 426.86 447.176C426.756 447.248 426.624 447.284 426.464 447.284C426.296 447.284 426.112 447.224 425.912 447.104C425.72 446.976 425.488 446.836 425.216 446.684C424.944 446.532 424.624 446.396 424.256 446.276C423.896 446.148 423.468 446.084 422.972 446.084C422.524 446.084 422.132 446.14 421.796 446.252C421.46 446.356 421.176 446.504 420.944 446.696C420.72 446.888 420.552 447.12 420.44 447.392C420.328 447.656 420.272 447.948 420.272 448.268C420.272 448.676 420.384 449.016 420.608 449.288C420.84 449.56 421.144 449.792 421.52 449.984C421.896 450.176 422.324 450.348 422.804 450.5C423.284 450.652 423.776 450.816 424.28 450.992C424.784 451.16 425.276 451.36 425.756 451.592C426.236 451.816 426.664 452.104 427.04 452.456C427.416 452.8 427.716 453.224 427.94 453.728C428.172 454.232 428.288 454.844 428.288 455.564C428.288 456.348 428.152 457.084 427.88 457.772C427.616 458.452 427.224 459.048 426.704 459.56C426.192 460.064 425.564 460.464 424.82 460.76C424.076 461.048 423.224 461.192 422.264 461.192C421.712 461.192 421.168 461.136 420.632 461.024C420.096 460.92 419.58 460.768 419.084 460.568C418.596 460.368 418.136 460.128 417.704 459.848C417.272 459.568 416.888 459.256 416.552 458.912L417.5 457.364C417.58 457.252 417.684 457.16 417.812 457.088C417.94 457.008 418.076 456.968 418.22 456.968C418.42 456.968 418.636 457.052 418.868 457.22C419.1 457.38 419.376 457.56 419.696 457.76C420.016 457.96 420.388 458.144 420.812 458.312C421.244 458.472 421.76 458.552 422.36 458.552C423.28 458.552 423.992 458.336 424.496 457.904C425 457.464 425.252 456.836 425.252 456.02C425.252 455.564 425.136 455.192 424.904 454.904C424.68 454.616 424.38 454.376 424.004 454.184C423.628 453.984 423.2 453.816 422.72 453.68C422.24 453.544 421.752 453.396 421.256 453.236C420.76 453.076 420.272 452.884 419.792 452.66C419.312 452.436 418.884 452.144 418.508 451.784C418.132 451.424 417.828 450.976 417.596 450.44C417.372 449.896 417.26 449.228 417.26 448.436C417.26 447.804 417.384 447.188 417.632 446.588C417.888 445.988 418.256 445.456 418.736 444.992C419.216 444.528 419.808 444.156 420.512 443.876C421.216 443.596 422.024 443.456 422.936 443.456C423.96 443.456 424.904 443.616 425.768 443.936C426.632 444.256 427.368 444.704 427.976 445.28L427.172 446.804ZM454.075 443.648L448.687 461H445.771L441.979 449.144C441.875 448.856 441.779 448.504 441.691 448.088C441.643 448.288 441.595 448.476 441.547 448.652C441.499 448.828 441.447 448.992 441.391 449.144L437.563 461H434.635L429.259 443.648H431.959C432.239 443.648 432.471 443.716 432.655 443.852C432.847 443.98 432.975 444.156 433.039 444.38L435.991 454.76C436.055 455.016 436.115 455.296 436.171 455.6C436.235 455.896 436.299 456.208 436.363 456.536C436.427 456.2 436.495 455.884 436.567 455.588C436.647 455.292 436.731 455.016 436.819 454.76L440.227 444.38C440.291 444.196 440.415 444.028 440.599 443.876C440.791 443.724 441.023 443.648 441.295 443.648H442.243C442.523 443.648 442.751 443.716 442.927 443.852C443.103 443.988 443.235 444.164 443.323 444.38L446.719 454.76C446.887 455.256 447.039 455.828 447.175 456.476C447.279 455.844 447.395 455.272 447.523 454.76L450.475 444.38C450.523 444.18 450.643 444.008 450.835 443.864C451.035 443.72 451.271 443.648 451.543 443.648H454.075ZM459.445 446.216V451.028H465.517V453.512H459.445V458.42H467.149V461H456.205V443.648H467.149V446.216H459.445ZM473.25 446.216V451.028H479.322V453.512H473.25V458.42H480.954V461H470.01V443.648H480.954V446.216H473.25ZM495.935 446.3H490.703V461H487.475V446.3H482.243V443.648H495.935V446.3ZM512.555 446.804C512.459 446.972 512.355 447.096 512.243 447.176C512.139 447.248 512.007 447.284 511.847 447.284C511.679 447.284 511.495 447.224 511.295 447.104C511.103 446.976 510.871 446.836 510.599 446.684C510.327 446.532 510.007 446.396 509.639 446.276C509.279 446.148 508.851 446.084 508.355 446.084C507.907 446.084 507.515 446.14 507.179 446.252C506.843 446.356 506.559 446.504 506.327 446.696C506.103 446.888 505.935 447.12 505.823 447.392C505.711 447.656 505.655 447.948 505.655 448.268C505.655 448.676 505.767 449.016 505.991 449.288C506.223 449.56 506.527 449.792 506.903 449.984C507.279 450.176 507.707 450.348 508.187 450.5C508.667 450.652 509.159 450.816 509.663 450.992C510.167 451.16 510.659 451.36 511.139 451.592C511.619 451.816 512.047 452.104 512.423 452.456C512.799 452.8 513.099 453.224 513.323 453.728C513.555 454.232 513.671 454.844 513.671 455.564C513.671 456.348 513.535 457.084 513.263 457.772C512.999 458.452 512.607 459.048 512.087 459.56C511.575 460.064 510.947 460.464 510.203 460.76C509.459 461.048 508.607 461.192 507.647 461.192C507.095 461.192 506.551 461.136 506.015 461.024C505.479 460.92 504.963 460.768 504.467 460.568C503.979 460.368 503.519 460.128 503.087 459.848C502.655 459.568 502.271 459.256 501.935 458.912L502.883 457.364C502.963 457.252 503.067 457.16 503.195 457.088C503.323 457.008 503.459 456.968 503.603 456.968C503.803 456.968 504.019 457.052 504.251 457.22C504.483 457.38 504.759 457.56 505.079 457.76C505.399 457.96 505.771 458.144 506.195 458.312C506.627 458.472 507.143 458.552 507.743 458.552C508.663 458.552 509.375 458.336 509.879 457.904C510.383 457.464 510.635 456.836 510.635 456.02C510.635 455.564 510.519 455.192 510.287 454.904C510.063 454.616 509.763 454.376 509.387 454.184C509.011 453.984 508.583 453.816 508.103 453.68C507.623 453.544 507.135 453.396 506.639 453.236C506.143 453.076 505.655 452.884 505.175 452.66C504.695 452.436 504.267 452.144 503.891 451.784C503.515 451.424 503.211 450.976 502.979 450.44C502.755 449.896 502.643 449.228 502.643 448.436C502.643 447.804 502.767 447.188 503.015 446.588C503.271 445.988 503.639 445.456 504.119 444.992C504.599 444.528 505.191 444.156 505.895 443.876C506.599 443.596 507.407 443.456 508.319 443.456C509.343 443.456 510.287 443.616 511.151 443.936C512.015 444.256 512.751 444.704 513.359 445.28L512.555 446.804ZM522.127 452.372C522.719 452.372 523.235 452.3 523.675 452.156C524.115 452.004 524.479 451.792 524.767 451.52C525.063 451.24 525.283 450.904 525.427 450.512C525.571 450.112 525.643 449.668 525.643 449.18C525.643 448.716 525.571 448.296 525.427 447.92C525.283 447.544 525.067 447.224 524.779 446.96C524.491 446.696 524.127 446.496 523.687 446.36C523.247 446.216 522.727 446.144 522.127 446.144H519.715V452.372H522.127ZM522.127 443.648C523.287 443.648 524.291 443.784 525.139 444.056C525.987 444.328 526.687 444.708 527.239 445.196C527.791 445.684 528.199 446.268 528.463 446.948C528.735 447.628 528.871 448.372 528.871 449.18C528.871 450.02 528.731 450.792 528.451 451.496C528.171 452.192 527.751 452.792 527.191 453.296C526.631 453.8 525.927 454.192 525.079 454.472C524.239 454.752 523.255 454.892 522.127 454.892H519.715V461H516.487V443.648H522.127ZM547.894 452.324C547.894 453.596 547.682 454.776 547.258 455.864C546.842 456.944 546.25 457.88 545.482 458.672C544.714 459.464 543.79 460.084 542.71 460.532C541.63 460.972 540.43 461.192 539.11 461.192C537.798 461.192 536.602 460.972 535.522 460.532C534.442 460.084 533.514 459.464 532.738 458.672C531.97 457.88 531.374 456.944 530.95 455.864C530.526 454.776 530.314 453.596 530.314 452.324C530.314 451.052 530.526 449.876 530.95 448.796C531.374 447.708 531.97 446.768 532.738 445.976C533.514 445.184 534.442 444.568 535.522 444.128C536.602 443.68 537.798 443.456 539.11 443.456C539.99 443.456 540.818 443.56 541.594 443.768C542.37 443.968 543.082 444.256 543.73 444.632C544.378 445 544.958 445.452 545.47 445.988C545.99 446.516 546.43 447.108 546.79 447.764C547.15 448.42 547.422 449.132 547.606 449.9C547.798 450.668 547.894 451.476 547.894 452.324ZM544.594 452.324C544.594 451.372 544.466 450.52 544.21 449.768C543.954 449.008 543.59 448.364 543.118 447.836C542.646 447.308 542.07 446.904 541.39 446.624C540.718 446.344 539.958 446.204 539.11 446.204C538.262 446.204 537.498 446.344 536.818 446.624C536.146 446.904 535.57 447.308 535.09 447.836C534.618 448.364 534.254 449.008 533.998 449.768C533.742 450.52 533.614 451.372 533.614 452.324C533.614 453.276 533.742 454.132 533.998 454.892C534.254 455.644 534.618 456.284 535.09 456.812C535.57 457.332 536.146 457.732 536.818 458.012C537.498 458.292 538.262 458.432 539.11 458.432C539.958 458.432 540.718 458.292 541.39 458.012C542.07 457.732 542.646 457.332 543.118 456.812C543.59 456.284 543.954 455.644 544.21 454.892C544.466 454.132 544.594 453.276 544.594 452.324ZM562.263 446.3H557.031V461H553.803V446.3H548.571V443.648H562.263V446.3Z" fill="#717171"/>
<path d="M754.748 6.648V24H751.904V12.792C751.904 12.344 751.928 11.86 751.976 11.34L746.732 21.192C746.484 21.664 746.104 21.9 745.592 21.9H745.136C744.624 21.9 744.244 21.664 743.996 21.192L738.692 11.304C738.716 11.568 738.736 11.828 738.752 12.084C738.768 12.34 738.776 12.576 738.776 12.792V24H735.932V6.648H738.368C738.512 6.648 738.636 6.652 738.74 6.66C738.844 6.668 738.936 6.688 739.016 6.72C739.104 6.752 739.18 6.804 739.244 6.876C739.316 6.948 739.384 7.044 739.448 7.164L744.644 16.8C744.78 17.056 744.904 17.32 745.016 17.592C745.136 17.864 745.252 18.144 745.364 18.432C745.476 18.136 745.592 17.852 745.712 17.58C745.832 17.3 745.96 17.032 746.096 16.776L751.22 7.164C751.284 7.044 751.352 6.948 751.424 6.876C751.496 6.804 751.572 6.752 751.652 6.72C751.74 6.688 751.836 6.668 751.94 6.66C752.044 6.652 752.168 6.648 752.312 6.648H754.748ZM764.351 18.744C763.495 18.784 762.775 18.86 762.191 18.972C761.607 19.076 761.139 19.212 760.787 19.38C760.435 19.548 760.183 19.744 760.031 19.968C759.879 20.192 759.803 20.436 759.803 20.7C759.803 21.22 759.955 21.592 760.259 21.816C760.571 22.04 760.975 22.152 761.471 22.152C762.079 22.152 762.603 22.044 763.043 21.828C763.491 21.604 763.927 21.268 764.351 20.82V18.744ZM757.559 13.404C758.975 12.108 760.679 11.46 762.671 11.46C763.391 11.46 764.035 11.58 764.603 11.82C765.171 12.052 765.651 12.38 766.043 12.804C766.435 13.22 766.731 13.72 766.931 14.304C767.139 14.888 767.243 15.528 767.243 16.224V24H765.899C765.619 24 765.403 23.96 765.251 23.88C765.099 23.792 764.979 23.62 764.891 23.364L764.627 22.476C764.315 22.756 764.011 23.004 763.715 23.22C763.419 23.428 763.111 23.604 762.791 23.748C762.471 23.892 762.127 24 761.759 24.072C761.399 24.152 760.999 24.192 760.559 24.192C760.039 24.192 759.559 24.124 759.119 23.988C758.679 23.844 758.299 23.632 757.979 23.352C757.659 23.072 757.411 22.724 757.235 22.308C757.059 21.892 756.971 21.408 756.971 20.856C756.971 20.544 757.023 20.236 757.127 19.932C757.231 19.62 757.399 19.324 757.631 19.044C757.871 18.764 758.179 18.5 758.555 18.252C758.931 18.004 759.391 17.788 759.935 17.604C760.487 17.42 761.127 17.272 761.855 17.16C762.583 17.04 763.415 16.968 764.351 16.944V16.224C764.351 15.4 764.175 14.792 763.823 14.4C763.471 14 762.963 13.8 762.299 13.8C761.819 13.8 761.419 13.856 761.099 13.968C760.787 14.08 760.511 14.208 760.271 14.352C760.031 14.488 759.811 14.612 759.611 14.724C759.419 14.836 759.203 14.892 758.963 14.892C758.755 14.892 758.579 14.84 758.435 14.736C758.291 14.624 758.175 14.496 758.087 14.352L757.559 13.404ZM777.546 14.088C777.466 14.216 777.382 14.308 777.294 14.364C777.206 14.412 777.094 14.436 776.958 14.436C776.814 14.436 776.658 14.396 776.49 14.316C776.33 14.236 776.142 14.148 775.926 14.052C775.71 13.948 775.462 13.856 775.182 13.776C774.91 13.696 774.586 13.656 774.21 13.656C773.626 13.656 773.166 13.78 772.83 14.028C772.502 14.276 772.338 14.6 772.338 15C772.338 15.264 772.422 15.488 772.59 15.672C772.766 15.848 772.994 16.004 773.274 16.14C773.562 16.276 773.886 16.4 774.246 16.512C774.606 16.616 774.97 16.732 775.338 16.86C775.714 16.988 776.082 17.136 776.442 17.304C776.802 17.464 777.122 17.672 777.402 17.928C777.69 18.176 777.918 18.476 778.086 18.828C778.262 19.18 778.35 19.604 778.35 20.1C778.35 20.692 778.242 21.24 778.026 21.744C777.818 22.24 777.506 22.672 777.09 23.04C776.674 23.4 776.158 23.684 775.542 23.892C774.934 24.092 774.23 24.192 773.43 24.192C773.006 24.192 772.59 24.152 772.182 24.072C771.782 24 771.394 23.896 771.018 23.76C770.65 23.624 770.306 23.464 769.986 23.28C769.674 23.096 769.398 22.896 769.158 22.68L769.842 21.552C769.93 21.416 770.034 21.312 770.154 21.24C770.274 21.168 770.426 21.132 770.61 21.132C770.794 21.132 770.966 21.184 771.126 21.288C771.294 21.392 771.486 21.504 771.702 21.624C771.918 21.744 772.17 21.856 772.458 21.96C772.754 22.064 773.126 22.116 773.574 22.116C773.926 22.116 774.226 22.076 774.474 21.996C774.73 21.908 774.938 21.796 775.098 21.66C775.266 21.524 775.386 21.368 775.458 21.192C775.538 21.008 775.578 20.82 775.578 20.628C775.578 20.34 775.49 20.104 775.314 19.92C775.146 19.736 774.918 19.576 774.63 19.44C774.35 19.304 774.026 19.184 773.658 19.08C773.298 18.968 772.926 18.848 772.542 18.72C772.166 18.592 771.794 18.444 771.426 18.276C771.066 18.1 770.742 17.88 770.454 17.616C770.174 17.352 769.946 17.028 769.77 16.644C769.602 16.26 769.518 15.796 769.518 15.252C769.518 14.748 769.618 14.268 769.818 13.812C770.018 13.356 770.31 12.96 770.694 12.624C771.086 12.28 771.57 12.008 772.146 11.808C772.73 11.6 773.402 11.496 774.162 11.496C775.01 11.496 775.782 11.636 776.478 11.916C777.174 12.196 777.754 12.564 778.218 13.02L777.546 14.088ZM784.685 24.192C783.613 24.192 782.789 23.892 782.213 23.292C781.645 22.684 781.361 21.848 781.361 20.784V13.908H780.101C779.941 13.908 779.805 13.856 779.693 13.752C779.581 13.648 779.525 13.492 779.525 13.284V12.108L781.505 11.784L782.129 8.424C782.169 8.264 782.245 8.14 782.357 8.052C782.469 7.964 782.613 7.92 782.789 7.92H784.325V11.796H787.613V13.908H784.325V20.58C784.325 20.964 784.417 21.264 784.601 21.48C784.793 21.696 785.053 21.804 785.381 21.804C785.565 21.804 785.717 21.784 785.837 21.744C785.965 21.696 786.073 21.648 786.161 21.6C786.257 21.552 786.341 21.508 786.413 21.468C786.485 21.42 786.557 21.396 786.629 21.396C786.717 21.396 786.789 21.42 786.845 21.468C786.901 21.508 786.961 21.572 787.025 21.66L787.913 23.1C787.481 23.46 786.985 23.732 786.425 23.916C785.865 24.1 785.285 24.192 784.685 24.192ZM797.349 16.428C797.349 16.044 797.293 15.684 797.181 15.348C797.077 15.004 796.917 14.704 796.701 14.448C796.485 14.192 796.209 13.992 795.873 13.848C795.545 13.696 795.161 13.62 794.721 13.62C793.865 13.62 793.189 13.864 792.693 14.352C792.205 14.84 791.893 15.532 791.757 16.428H797.349ZM791.697 18.216C791.745 18.848 791.857 19.396 792.033 19.86C792.209 20.316 792.441 20.696 792.729 21C793.017 21.296 793.357 21.52 793.749 21.672C794.149 21.816 794.589 21.888 795.069 21.888C795.549 21.888 795.961 21.832 796.305 21.72C796.657 21.608 796.961 21.484 797.217 21.348C797.481 21.212 797.709 21.088 797.901 20.976C798.101 20.864 798.293 20.808 798.477 20.808C798.725 20.808 798.909 20.9 799.029 21.084L799.881 22.164C799.553 22.548 799.185 22.872 798.777 23.136C798.369 23.392 797.941 23.6 797.493 23.76C797.053 23.912 796.601 24.02 796.137 24.084C795.681 24.148 795.237 24.18 794.805 24.18C793.949 24.18 793.153 24.04 792.417 23.76C791.681 23.472 791.041 23.052 790.497 22.5C789.953 21.94 789.525 21.252 789.213 20.436C788.901 19.612 788.745 18.66 788.745 17.58C788.745 16.74 788.881 15.952 789.153 15.216C789.425 14.472 789.813 13.828 790.317 13.284C790.829 12.732 791.449 12.296 792.177 11.976C792.913 11.656 793.741 11.496 794.661 11.496C795.437 11.496 796.153 11.62 796.809 11.868C797.465 12.116 798.029 12.48 798.501 12.96C798.973 13.432 799.341 14.016 799.605 14.712C799.877 15.4 800.013 16.188 800.013 17.076C800.013 17.524 799.965 17.828 799.869 17.988C799.773 18.14 799.589 18.216 799.317 18.216H791.697ZM805.033 13.824C805.417 13.088 805.873 12.512 806.401 12.096C806.929 11.672 807.553 11.46 808.273 11.46C808.841 11.46 809.297 11.584 809.641 11.832L809.449 14.052C809.409 14.196 809.349 14.3 809.269 14.364C809.197 14.42 809.097 14.448 808.969 14.448C808.849 14.448 808.669 14.428 808.429 14.388C808.197 14.348 807.969 14.328 807.745 14.328C807.417 14.328 807.125 14.376 806.869 14.472C806.613 14.568 806.381 14.708 806.173 14.892C805.973 15.068 805.793 15.284 805.633 15.54C805.481 15.796 805.337 16.088 805.201 16.416V24H802.237V11.688H803.977C804.281 11.688 804.493 11.744 804.613 11.856C804.733 11.96 804.813 12.152 804.853 12.432L805.033 13.824ZM822.375 11.688L815.667 27.384C815.579 27.592 815.463 27.748 815.319 27.852C815.183 27.964 814.971 28.02 814.683 28.02H812.475L814.779 23.076L809.799 11.688H812.403C812.635 11.688 812.815 11.744 812.943 11.856C813.079 11.968 813.179 12.096 813.243 12.24L815.859 18.624C815.947 18.84 816.019 19.056 816.075 19.272C816.139 19.488 816.199 19.708 816.255 19.932C816.327 19.708 816.399 19.488 816.471 19.272C816.543 19.048 816.623 18.828 816.711 18.612L819.183 12.24C819.247 12.08 819.351 11.948 819.495 11.844C819.647 11.74 819.815 11.688 819.999 11.688H822.375Z" fill="white"/>
<path d="M127.172 24H123.932V6.648H127.172V24ZM133.174 13.2C133.422 12.952 133.682 12.724 133.954 12.516C134.234 12.3 134.526 12.12 134.83 11.976C135.142 11.824 135.474 11.708 135.826 11.628C136.178 11.54 136.562 11.496 136.978 11.496C137.65 11.496 138.246 11.612 138.766 11.844C139.286 12.068 139.718 12.388 140.062 12.804C140.414 13.212 140.678 13.704 140.854 14.28C141.038 14.848 141.13 15.476 141.13 16.164V24H138.166V16.164C138.166 15.412 137.994 14.832 137.65 14.424C137.306 14.008 136.782 13.8 136.078 13.8C135.566 13.8 135.086 13.916 134.638 14.148C134.19 14.38 133.766 14.696 133.366 15.096V24H130.402V11.688H132.214C132.598 11.688 132.85 11.868 132.97 12.228L133.174 13.2ZM151.88 16.428C151.88 16.044 151.824 15.684 151.712 15.348C151.608 15.004 151.448 14.704 151.232 14.448C151.016 14.192 150.74 13.992 150.404 13.848C150.076 13.696 149.692 13.62 149.252 13.62C148.396 13.62 147.72 13.864 147.224 14.352C146.736 14.84 146.424 15.532 146.288 16.428H151.88ZM146.228 18.216C146.276 18.848 146.388 19.396 146.564 19.86C146.74 20.316 146.972 20.696 147.26 21C147.548 21.296 147.888 21.52 148.28 21.672C148.68 21.816 149.12 21.888 149.6 21.888C150.08 21.888 150.492 21.832 150.836 21.72C151.188 21.608 151.492 21.484 151.748 21.348C152.012 21.212 152.24 21.088 152.432 20.976C152.632 20.864 152.824 20.808 153.008 20.808C153.256 20.808 153.44 20.9 153.56 21.084L154.412 22.164C154.084 22.548 153.716 22.872 153.308 23.136C152.9 23.392 152.472 23.6 152.024 23.76C151.584 23.912 151.132 24.02 150.668 24.084C150.212 24.148 149.768 24.18 149.336 24.18C148.48 24.18 147.684 24.04 146.948 23.76C146.212 23.472 145.572 23.052 145.028 22.5C144.484 21.94 144.056 21.252 143.744 20.436C143.432 19.612 143.276 18.66 143.276 17.58C143.276 16.74 143.412 15.952 143.684 15.216C143.956 14.472 144.344 13.828 144.848 13.284C145.36 12.732 145.98 12.296 146.708 11.976C147.444 11.656 148.272 11.496 149.192 11.496C149.968 11.496 150.684 11.62 151.34 11.868C151.996 12.116 152.56 12.48 153.032 12.96C153.504 13.432 153.872 14.016 154.136 14.712C154.408 15.4 154.544 16.188 154.544 17.076C154.544 17.524 154.496 17.828 154.4 17.988C154.304 18.14 154.12 18.216 153.848 18.216H146.228ZM167.573 24H164.717C164.501 24 164.325 23.944 164.189 23.832C164.061 23.72 163.953 23.592 163.865 23.448L161.261 19.164C161.221 19.3 161.173 19.428 161.117 19.548C161.069 19.668 161.013 19.78 160.949 19.884L158.645 23.448C158.557 23.584 158.449 23.712 158.321 23.832C158.193 23.944 158.033 24 157.841 24H155.189L159.413 17.652L155.357 11.688H158.213C158.429 11.688 158.589 11.72 158.693 11.784C158.797 11.84 158.889 11.936 158.969 12.072L161.549 16.176C161.637 15.904 161.761 15.636 161.921 15.372L163.997 12.132C164.173 11.836 164.401 11.688 164.681 11.688H167.405L163.361 17.52L167.573 24ZM172.084 20.808C172.42 21.216 172.784 21.504 173.176 21.672C173.576 21.84 174.008 21.924 174.472 21.924C174.92 21.924 175.324 21.84 175.684 21.672C176.044 21.504 176.348 21.248 176.596 20.904C176.852 20.56 177.048 20.128 177.184 19.608C177.32 19.08 177.388 18.46 177.388 17.748C177.388 17.028 177.328 16.42 177.208 15.924C177.096 15.42 176.932 15.012 176.716 14.7C176.5 14.388 176.236 14.16 175.924 14.016C175.62 13.872 175.272 13.8 174.88 13.8C174.264 13.8 173.74 13.932 173.308 14.196C172.876 14.452 172.468 14.816 172.084 15.288V20.808ZM171.928 13.368C172.432 12.8 173.004 12.34 173.644 11.988C174.284 11.636 175.036 11.46 175.9 11.46C176.572 11.46 177.184 11.6 177.736 11.88C178.296 12.16 178.776 12.568 179.176 13.104C179.584 13.632 179.896 14.288 180.112 15.072C180.336 15.848 180.448 16.74 180.448 17.748C180.448 18.668 180.324 19.52 180.076 20.304C179.828 21.088 179.472 21.768 179.008 22.344C178.552 22.92 177.996 23.372 177.34 23.7C176.692 24.02 175.964 24.18 175.156 24.18C174.468 24.18 173.88 24.076 173.392 23.868C172.904 23.652 172.468 23.356 172.084 22.98V28.02H169.12V11.688H170.932C171.316 11.688 171.568 11.868 171.688 12.228L171.928 13.368ZM190.693 16.428C190.693 16.044 190.637 15.684 190.525 15.348C190.421 15.004 190.261 14.704 190.045 14.448C189.829 14.192 189.553 13.992 189.217 13.848C188.889 13.696 188.505 13.62 188.065 13.62C187.209 13.62 186.533 13.864 186.037 14.352C185.549 14.84 185.237 15.532 185.101 16.428H190.693ZM185.041 18.216C185.089 18.848 185.201 19.396 185.377 19.86C185.553 20.316 185.785 20.696 186.073 21C186.361 21.296 186.701 21.52 187.093 21.672C187.493 21.816 187.933 21.888 188.413 21.888C188.893 21.888 189.305 21.832 189.649 21.72C190.001 21.608 190.305 21.484 190.561 21.348C190.825 21.212 191.053 21.088 191.245 20.976C191.445 20.864 191.637 20.808 191.821 20.808C192.069 20.808 192.253 20.9 192.373 21.084L193.225 22.164C192.897 22.548 192.529 22.872 192.121 23.136C191.713 23.392 191.285 23.6 190.837 23.76C190.397 23.912 189.945 24.02 189.481 24.084C189.025 24.148 188.581 24.18 188.149 24.18C187.293 24.18 186.497 24.04 185.761 23.76C185.025 23.472 184.385 23.052 183.841 22.5C183.297 21.94 182.869 21.252 182.557 20.436C182.245 19.612 182.089 18.66 182.089 17.58C182.089 16.74 182.225 15.952 182.497 15.216C182.769 14.472 183.157 13.828 183.661 13.284C184.173 12.732 184.793 12.296 185.521 11.976C186.257 11.656 187.085 11.496 188.005 11.496C188.781 11.496 189.497 11.62 190.153 11.868C190.809 12.116 191.373 12.48 191.845 12.96C192.317 13.432 192.685 14.016 192.949 14.712C193.221 15.4 193.357 16.188 193.357 17.076C193.357 17.524 193.309 17.828 193.213 17.988C193.117 18.14 192.933 18.216 192.661 18.216H185.041ZM198.377 13.824C198.761 13.088 199.217 12.512 199.745 12.096C200.273 11.672 200.897 11.46 201.617 11.46C202.185 11.46 202.641 11.584 202.985 11.832L202.793 14.052C202.753 14.196 202.693 14.3 202.613 14.364C202.541 14.42 202.441 14.448 202.313 14.448C202.193 14.448 202.013 14.428 201.773 14.388C201.541 14.348 201.313 14.328 201.089 14.328C200.761 14.328 200.469 14.376 200.213 14.472C199.957 14.568 199.725 14.708 199.517 14.892C199.317 15.068 199.137 15.284 198.977 15.54C198.825 15.796 198.681 16.088 198.545 16.416V24H195.581V11.688H197.321C197.625 11.688 197.837 11.744 197.957 11.856C198.077 11.96 198.157 12.152 198.197 12.432L198.377 13.824ZM207.606 11.688V24H204.63V11.688H207.606ZM208.014 8.1C208.014 8.356 207.962 8.596 207.858 8.82C207.754 9.044 207.614 9.24 207.438 9.408C207.27 9.576 207.07 9.712 206.838 9.816C206.606 9.912 206.358 9.96 206.094 9.96C205.838 9.96 205.594 9.912 205.362 9.816C205.138 9.712 204.942 9.576 204.774 9.408C204.606 9.24 204.47 9.044 204.366 8.82C204.27 8.596 204.222 8.356 204.222 8.1C204.222 7.836 204.27 7.588 204.366 7.356C204.47 7.124 204.606 6.924 204.774 6.756C204.942 6.588 205.138 6.456 205.362 6.36C205.594 6.256 205.838 6.204 206.094 6.204C206.358 6.204 206.606 6.256 206.838 6.36C207.07 6.456 207.27 6.588 207.438 6.756C207.614 6.924 207.754 7.124 207.858 7.356C207.962 7.588 208.014 7.836 208.014 8.1ZM218.56 16.428C218.56 16.044 218.504 15.684 218.392 15.348C218.288 15.004 218.128 14.704 217.912 14.448C217.696 14.192 217.42 13.992 217.084 13.848C216.756 13.696 216.372 13.62 215.932 13.62C215.076 13.62 214.4 13.864 213.904 14.352C213.416 14.84 213.104 15.532 212.968 16.428H218.56ZM212.908 18.216C212.956 18.848 213.068 19.396 213.244 19.86C213.42 20.316 213.652 20.696 213.94 21C214.228 21.296 214.568 21.52 214.96 21.672C215.36 21.816 215.8 21.888 216.28 21.888C216.76 21.888 217.172 21.832 217.516 21.72C217.868 21.608 218.172 21.484 218.428 21.348C218.692 21.212 218.92 21.088 219.112 20.976C219.312 20.864 219.504 20.808 219.688 20.808C219.936 20.808 220.12 20.9 220.24 21.084L221.092 22.164C220.764 22.548 220.396 22.872 219.988 23.136C219.58 23.392 219.152 23.6 218.704 23.76C218.264 23.912 217.812 24.02 217.348 24.084C216.892 24.148 216.448 24.18 216.016 24.18C215.16 24.18 214.364 24.04 213.628 23.76C212.892 23.472 212.252 23.052 211.708 22.5C211.164 21.94 210.736 21.252 210.424 20.436C210.112 19.612 209.956 18.66 209.956 17.58C209.956 16.74 210.092 15.952 210.364 15.216C210.636 14.472 211.024 13.828 211.528 13.284C212.04 12.732 212.66 12.296 213.388 11.976C214.124 11.656 214.952 11.496 215.872 11.496C216.648 11.496 217.364 11.62 218.02 11.868C218.676 12.116 219.24 12.48 219.712 12.96C220.184 13.432 220.552 14.016 220.816 14.712C221.088 15.4 221.224 16.188 221.224 17.076C221.224 17.524 221.176 17.828 221.08 17.988C220.984 18.14 220.8 18.216 220.528 18.216H212.908ZM226.22 13.2C226.468 12.952 226.728 12.724 227 12.516C227.28 12.3 227.572 12.12 227.876 11.976C228.188 11.824 228.52 11.708 228.872 11.628C229.224 11.54 229.608 11.496 230.024 11.496C230.696 11.496 231.292 11.612 231.812 11.844C232.332 12.068 232.764 12.388 233.108 12.804C233.46 13.212 233.724 13.704 233.9 14.28C234.084 14.848 234.176 15.476 234.176 16.164V24H231.212V16.164C231.212 15.412 231.04 14.832 230.696 14.424C230.352 14.008 229.828 13.8 229.124 13.8C228.612 13.8 228.132 13.916 227.684 14.148C227.236 14.38 226.812 14.696 226.412 15.096V24H223.448V11.688H225.26C225.644 11.688 225.896 11.868 226.016 12.228L226.22 13.2ZM245.815 14.292C245.727 14.404 245.639 14.492 245.551 14.556C245.471 14.62 245.351 14.652 245.191 14.652C245.039 14.652 244.891 14.608 244.747 14.52C244.603 14.424 244.431 14.32 244.231 14.208C244.031 14.088 243.791 13.984 243.511 13.896C243.239 13.8 242.899 13.752 242.491 13.752C241.971 13.752 241.515 13.848 241.123 14.04C240.731 14.224 240.403 14.492 240.139 14.844C239.883 15.196 239.691 15.624 239.563 16.128C239.435 16.624 239.371 17.188 239.371 17.82C239.371 18.476 239.439 19.06 239.575 19.572C239.719 20.084 239.923 20.516 240.187 20.868C240.451 21.212 240.771 21.476 241.147 21.66C241.523 21.836 241.947 21.924 242.419 21.924C242.891 21.924 243.271 21.868 243.559 21.756C243.855 21.636 244.103 21.508 244.303 21.372C244.503 21.228 244.675 21.1 244.819 20.988C244.971 20.868 245.139 20.808 245.323 20.808C245.563 20.808 245.743 20.9 245.863 21.084L246.715 22.164C246.387 22.548 246.031 22.872 245.647 23.136C245.263 23.392 244.863 23.6 244.447 23.76C244.039 23.912 243.615 24.02 243.175 24.084C242.743 24.148 242.311 24.18 241.879 24.18C241.119 24.18 240.403 24.04 239.731 23.76C239.059 23.472 238.471 23.056 237.967 22.512C237.463 21.968 237.063 21.304 236.767 20.52C236.479 19.728 236.335 18.828 236.335 17.82C236.335 16.916 236.463 16.08 236.719 15.312C236.983 14.536 237.367 13.868 237.871 13.308C238.375 12.74 238.999 12.296 239.743 11.976C240.487 11.656 241.343 11.496 242.311 11.496C243.231 11.496 244.035 11.644 244.723 11.94C245.419 12.236 246.043 12.66 246.595 13.212L245.815 14.292ZM256.294 16.428C256.294 16.044 256.238 15.684 256.126 15.348C256.022 15.004 255.862 14.704 255.646 14.448C255.43 14.192 255.154 13.992 254.818 13.848C254.49 13.696 254.106 13.62 253.666 13.62C252.81 13.62 252.134 13.864 251.638 14.352C251.15 14.84 250.838 15.532 250.702 16.428H256.294ZM250.642 18.216C250.69 18.848 250.802 19.396 250.978 19.86C251.154 20.316 251.386 20.696 251.674 21C251.962 21.296 252.302 21.52 252.694 21.672C253.094 21.816 253.534 21.888 254.014 21.888C254.494 21.888 254.906 21.832 255.25 21.72C255.602 21.608 255.906 21.484 256.162 21.348C256.426 21.212 256.654 21.088 256.846 20.976C257.046 20.864 257.238 20.808 257.422 20.808C257.67 20.808 257.854 20.9 257.974 21.084L258.826 22.164C258.498 22.548 258.13 22.872 257.722 23.136C257.314 23.392 256.886 23.6 256.438 23.76C255.998 23.912 255.546 24.02 255.082 24.084C254.626 24.148 254.182 24.18 253.75 24.18C252.894 24.18 252.098 24.04 251.362 23.76C250.626 23.472 249.986 23.052 249.442 22.5C248.898 21.94 248.47 21.252 248.158 20.436C247.846 19.612 247.69 18.66 247.69 17.58C247.69 16.74 247.826 15.952 248.098 15.216C248.37 14.472 248.758 13.828 249.262 13.284C249.774 12.732 250.394 12.296 251.122 11.976C251.858 11.656 252.686 11.496 253.606 11.496C254.382 11.496 255.098 11.62 255.754 11.868C256.41 12.116 256.974 12.48 257.446 12.96C257.918 13.432 258.286 14.016 258.55 14.712C258.822 15.4 258.958 16.188 258.958 17.076C258.958 17.524 258.91 17.828 258.814 17.988C258.718 18.14 258.534 18.216 258.262 18.216H250.642Z" fill="white"/>
<path d="M936.084 62V59.096H940.596V47.864H940.38L936.972 52.328L934.668 50.528L938.676 45.248H944.196V59.096H947.748V62H936.084ZM955.419 62.288C953.227 62.288 951.603 61.528 950.547 60.008C949.491 58.488 948.963 56.36 948.963 53.624C948.963 50.888 949.491 48.76 950.547 47.24C951.603 45.72 953.227 44.96 955.419 44.96C957.611 44.96 959.235 45.72 960.291 47.24C961.347 48.76 961.875 50.888 961.875 53.624C961.875 56.36 961.347 58.488 960.291 60.008C959.235 61.528 957.611 62.288 955.419 62.288ZM955.419 59.24C956.379 59.24 957.043 58.888 957.411 58.184C957.779 57.48 957.963 56.488 957.963 55.208V52.04C957.963 50.76 957.779 49.768 957.411 49.064C957.043 48.36 956.379 48.008 955.419 48.008C954.459 48.008 953.795 48.36 953.427 49.064C953.059 49.768 952.875 50.76 952.875 52.04V55.208C952.875 56.488 953.059 57.48 953.427 58.184C953.795 58.888 954.459 59.24 955.419 59.24ZM969.809 62.288C967.617 62.288 965.993 61.528 964.937 60.008C963.881 58.488 963.353 56.36 963.353 53.624C963.353 50.888 963.881 48.76 964.937 47.24C965.993 45.72 967.617 44.96 969.809 44.96C972.001 44.96 973.625 45.72 974.681 47.24C975.737 48.76 976.265 50.888 976.265 53.624C976.265 56.36 975.737 58.488 974.681 60.008C973.625 61.528 972.001 62.288 969.809 62.288ZM969.809 59.24C970.769 59.24 971.433 58.888 971.801 58.184C972.169 57.48 972.353 56.488 972.353 55.208V52.04C972.353 50.76 972.169 49.768 971.801 49.064C971.433 48.36 970.769 48.008 969.809 48.008C968.849 48.008 968.185 48.36 967.817 49.064C967.449 49.768 967.265 50.76 967.265 52.04V55.208C967.265 56.488 967.449 57.48 967.817 58.184C968.185 58.888 968.849 59.24 969.809 59.24Z" fill="white"/>
<path d="M34.8094 489.288C32.6174 489.288 30.9934 488.528 29.9374 487.008C28.8814 485.488 28.3534 483.36 28.3534 480.624C28.3534 477.888 28.8814 475.76 29.9374 474.24C30.9934 472.72 32.6174 471.96 34.8094 471.96C37.0014 471.96 38.6254 472.72 39.6814 474.24C40.7374 475.76 41.2654 477.888 41.2654 480.624C41.2654 483.36 40.7374 485.488 39.6814 487.008C38.6254 488.528 37.0014 489.288 34.8094 489.288ZM34.8094 486.24C35.7694 486.24 36.4334 485.888 36.8014 485.184C37.1694 484.48 37.3534 483.488 37.3534 482.208V479.04C37.3534 477.76 37.1694 476.768 36.8014 476.064C36.4334 475.36 35.7694 475.008 34.8094 475.008C33.8494 475.008 33.1854 475.36 32.8174 476.064C32.4494 476.768 32.2654 477.76 32.2654 479.04V482.208C32.2654 483.488 32.4494 484.48 32.8174 485.184C33.1854 485.888 33.8494 486.24 34.8094 486.24Z" fill="white"/>
<path d="M65.052 511.3H59.82V526H56.592V511.3H51.36V508.648H65.052V511.3ZM69.8094 513.688V526H66.8334V513.688H69.8094ZM70.2174 510.1C70.2174 510.356 70.1654 510.596 70.0614 510.82C69.9574 511.044 69.8174 511.24 69.6414 511.408C69.4734 511.576 69.2734 511.712 69.0414 511.816C68.8094 511.912 68.5614 511.96 68.2974 511.96C68.0414 511.96 67.7974 511.912 67.5654 511.816C67.3414 511.712 67.1454 511.576 66.9774 511.408C66.8094 511.24 66.6734 511.044 66.5694 510.82C66.4734 510.596 66.4254 510.356 66.4254 510.1C66.4254 509.836 66.4734 509.588 66.5694 509.356C66.6734 509.124 66.8094 508.924 66.9774 508.756C67.1454 508.588 67.3414 508.456 67.5654 508.36C67.7974 508.256 68.0414 508.204 68.2974 508.204C68.5614 508.204 68.8094 508.256 69.0414 508.36C69.2734 508.456 69.4734 508.588 69.6414 508.756C69.8174 508.924 69.9574 509.124 70.0614 509.356C70.1654 509.588 70.2174 509.836 70.2174 510.1ZM72.8312 526V513.688H74.6432C75.0272 513.688 75.2792 513.868 75.3992 514.228L75.5912 515.14C75.8072 514.9 76.0312 514.68 76.2632 514.48C76.5032 514.28 76.7552 514.108 77.0192 513.964C77.2912 513.82 77.5792 513.708 77.8832 513.628C78.1952 513.54 78.5352 513.496 78.9032 513.496C79.6792 513.496 80.3152 513.708 80.8112 514.132C81.3152 514.548 81.6912 515.104 81.9392 515.8C82.1312 515.392 82.3712 515.044 82.6592 514.756C82.9472 514.46 83.2632 514.22 83.6072 514.036C83.9512 513.852 84.3152 513.716 84.6992 513.628C85.0912 513.54 85.4832 513.496 85.8752 513.496C86.5552 513.496 87.1592 513.6 87.6872 513.808C88.2152 514.016 88.6592 514.32 89.0192 514.72C89.3792 515.12 89.6512 515.608 89.8352 516.184C90.0272 516.76 90.1232 517.42 90.1232 518.164V526H87.1592V518.164C87.1592 517.38 86.9872 516.792 86.6432 516.4C86.2992 516 85.7952 515.8 85.1312 515.8C84.8272 515.8 84.5432 515.852 84.2792 515.956C84.0232 516.06 83.7952 516.212 83.5952 516.412C83.4032 516.604 83.2512 516.848 83.1392 517.144C83.0272 517.44 82.9712 517.78 82.9712 518.164V526H79.9952V518.164C79.9952 517.34 79.8272 516.74 79.4912 516.364C79.1632 515.988 78.6792 515.8 78.0392 515.8C77.6072 515.8 77.2032 515.908 76.8272 516.124C76.4592 516.332 76.1152 516.62 75.7952 516.988V526H72.8312ZM100.873 518.428C100.873 518.044 100.817 517.684 100.705 517.348C100.601 517.004 100.441 516.704 100.225 516.448C100.009 516.192 99.7326 515.992 99.3966 515.848C99.0686 515.696 98.6846 515.62 98.2446 515.62C97.3886 515.62 96.7126 515.864 96.2166 516.352C95.7286 516.84 95.4166 517.532 95.2806 518.428H100.873ZM95.2206 520.216C95.2686 520.848 95.3806 521.396 95.5566 521.86C95.7326 522.316 95.9646 522.696 96.2526 523C96.5406 523.296 96.8806 523.52 97.2726 523.672C97.6726 523.816 98.1126 523.888 98.5926 523.888C99.0726 523.888 99.4846 523.832 99.8286 523.72C100.181 523.608 100.485 523.484 100.741 523.348C101.005 523.212 101.233 523.088 101.425 522.976C101.625 522.864 101.817 522.808 102.001 522.808C102.249 522.808 102.433 522.9 102.553 523.084L103.405 524.164C103.077 524.548 102.709 524.872 102.301 525.136C101.893 525.392 101.465 525.6 101.017 525.76C100.577 525.912 100.125 526.02 99.6606 526.084C99.2046 526.148 98.7606 526.18 98.3286 526.18C97.4726 526.18 96.6766 526.04 95.9406 525.76C95.2046 525.472 94.5646 525.052 94.0206 524.5C93.4766 523.94 93.0486 523.252 92.7366 522.436C92.4246 521.612 92.2686 520.66 92.2686 519.58C92.2686 518.74 92.4046 517.952 92.6766 517.216C92.9486 516.472 93.3366 515.828 93.8406 515.284C94.3526 514.732 94.9726 514.296 95.7006 513.976C96.4366 513.656 97.2646 513.496 98.1846 513.496C98.9606 513.496 99.6766 513.62 100.333 513.868C100.989 514.116 101.553 514.48 102.025 514.96C102.497 515.432 102.865 516.016 103.129 516.712C103.401 517.4 103.537 518.188 103.537 519.076C103.537 519.524 103.489 519.828 103.393 519.988C103.297 520.14 103.113 520.216 102.841 520.216H95.2206Z" fill="#717171"/>
<path d="M15.3 417.764L22.32 417.764C22.968 418.644 23.444 419.584 23.748 420.584C24.044 421.576 24.192 422.64 24.192 423.776C24.192 425.192 23.972 426.476 23.532 427.628C23.092 428.772 22.48 429.752 21.696 430.568C20.912 431.376 19.976 432 18.888 432.44C17.8 432.88 16.612 433.1 15.324 433.1C14.02 433.1 12.824 432.888 11.736 432.464C10.648 432.04 9.712 431.44 8.928 430.664C8.144 429.88 7.536 428.932 7.104 427.82C6.672 426.708 6.456 425.46 6.456 424.076C6.456 423.372 6.512 422.716 6.624 422.108C6.736 421.492 6.892 420.924 7.092 420.404C7.284 419.876 7.52 419.396 7.8 418.964C8.08 418.532 8.388 418.136 8.724 417.776L10.188 418.7C10.42 418.844 10.564 419.032 10.62 419.264C10.668 419.496 10.608 419.748 10.44 420.02C10.288 420.284 10.136 420.548 9.984 420.812C9.832 421.076 9.7 421.372 9.588 421.7C9.476 422.02 9.384 422.384 9.312 422.792C9.24 423.192 9.204 423.656 9.204 424.184C9.204 425.04 9.348 425.816 9.636 426.512C9.924 427.2 10.336 427.788 10.872 428.276C11.408 428.764 12.052 429.14 12.804 429.404C13.556 429.668 14.396 429.8 15.324 429.8C16.316 429.8 17.204 429.66 17.988 429.38C18.764 429.092 19.424 428.692 19.968 428.18C20.504 427.66 20.916 427.036 21.204 426.308C21.484 425.58 21.624 424.768 21.624 423.872C21.624 423.232 21.556 422.66 21.42 422.156C21.284 421.652 21.1 421.16 20.868 420.68L17.724 420.68L17.724 422.864C17.724 423.072 17.668 423.236 17.556 423.356C17.436 423.468 17.292 423.524 17.124 423.524L15.3 423.524L15.3 417.764ZM13.824 412.513C13.088 412.129 12.512 411.673 12.096 411.145C11.672 410.617 11.46 409.993 11.46 409.273C11.46 408.705 11.584 408.249 11.832 407.905L14.052 408.097C14.196 408.137 14.3 408.197 14.364 408.277C14.42 408.349 14.448 408.449 14.448 408.577C14.448 408.697 14.428 408.877 14.388 409.117C14.348 409.349 14.328 409.577 14.328 409.801C14.328 410.129 14.376 410.421 14.472 410.677C14.568 410.933 14.708 411.165 14.892 411.373C15.068 411.573 15.284 411.753 15.54 411.913C15.796 412.065 16.088 412.209 16.416 412.345L24 412.345L24 415.309L11.688 415.309L11.688 413.569C11.688 413.265 11.744 413.053 11.856 412.933C11.96 412.813 12.152 412.733 12.432 412.693L13.824 412.513ZM11.496 401.26C11.496 400.348 11.644 399.52 11.94 398.776C12.236 398.024 12.656 397.384 13.2 396.856C13.744 396.32 14.408 395.908 15.192 395.62C15.976 395.332 16.852 395.188 17.82 395.188C18.796 395.188 19.676 395.332 20.46 395.62C21.244 395.908 21.912 396.32 22.464 396.856C23.016 397.384 23.44 398.024 23.736 398.776C24.032 399.52 24.18 400.348 24.18 401.26C24.18 402.18 24.032 403.016 23.736 403.768C23.44 404.52 23.016 405.164 22.464 405.7C21.912 406.228 21.244 406.64 20.46 406.936C19.676 407.224 18.796 407.368 17.82 407.368C16.852 407.368 15.976 407.224 15.192 406.936C14.408 406.64 13.744 406.228 13.2 405.7C12.656 405.164 12.236 404.52 11.94 403.768C11.644 403.016 11.496 402.18 11.496 401.26ZM21.9 401.26C21.9 400.236 21.556 399.48 20.868 398.992C20.18 398.496 19.172 398.248 17.844 398.248C16.516 398.248 15.504 398.496 14.808 398.992C14.112 399.48 13.764 400.236 13.764 401.26C13.764 402.3 14.116 403.072 14.82 403.576C15.516 404.072 16.524 404.32 17.844 404.32C19.164 404.32 20.172 404.072 20.868 403.576C21.556 403.072 21.9 402.3 21.9 401.26ZM11.688 375.558L24 379.47L24 381.846C24 382.118 23.824 382.306 23.472 382.41L16.356 384.618C16.116 384.69 15.88 384.758 15.648 384.822C15.408 384.878 15.168 384.926 14.928 384.966C15.168 385.014 15.412 385.07 15.66 385.134C15.9 385.19 16.14 385.254 16.38 385.326L23.472 387.57C23.824 387.666 24 387.878 24 388.206L24 390.486L11.688 394.386L11.688 392.022C11.688 391.806 11.74 391.622 11.844 391.47C11.948 391.318 12.08 391.218 12.24 391.17L18.816 389.406C19.176 389.318 19.528 389.242 19.872 389.178C20.216 389.106 20.56 389.046 20.904 388.998C20.56 388.91 20.216 388.818 19.872 388.722C19.528 388.618 19.176 388.51 18.816 388.398L12.216 386.358C12.056 386.31 11.924 386.218 11.82 386.082C11.716 385.938 11.664 385.766 11.664 385.566L11.664 384.258C11.664 384.05 11.716 383.874 11.82 383.73C11.924 383.578 12.056 383.478 12.216 383.43L18.816 381.45C19.176 381.346 19.532 381.25 19.884 381.162C20.228 381.066 20.572 380.974 20.916 380.886C20.236 380.782 19.536 380.634 18.816 380.442L12.24 378.63C12.08 378.574 11.948 378.474 11.844 378.33C11.74 378.186 11.688 378.014 11.688 377.814L11.688 375.558ZM24.192 369.768C24.192 370.84 23.892 371.664 23.292 372.24C22.684 372.808 21.848 373.092 20.784 373.092L13.908 373.092L13.908 374.352C13.908 374.512 13.856 374.648 13.752 374.76C13.648 374.872 13.492 374.928 13.284 374.928L12.108 374.928L11.784 372.948L8.424 372.324C8.264 372.284 8.14 372.208 8.052 372.096C7.964 371.984 7.92 371.84 7.92 371.664L7.92 370.128L11.796 370.128L11.796 366.84L13.908 366.84L13.908 370.128L20.58 370.128C20.964 370.128 21.264 370.036 21.48 369.852C21.696 369.66 21.804 369.4 21.804 369.072C21.804 368.888 21.784 368.736 21.744 368.616C21.696 368.488 21.648 368.38 21.6 368.292C21.552 368.196 21.508 368.112 21.468 368.04C21.42 367.968 21.396 367.896 21.396 367.824C21.396 367.736 21.42 367.664 21.468 367.608C21.508 367.552 21.572 367.492 21.66 367.428L23.1 366.54C23.46 366.972 23.732 367.468 23.916 368.028C24.1 368.588 24.192 369.168 24.192 369.768ZM13.008 361.978C12.56 361.498 12.196 360.97 11.916 360.394C11.636 359.818 11.496 359.142 11.496 358.366C11.496 357.694 11.612 357.098 11.844 356.578C12.068 356.058 12.388 355.626 12.804 355.282C13.212 354.93 13.704 354.666 14.28 354.49C14.848 354.306 15.476 354.214 16.164 354.214L24 354.214L24 357.178L16.164 357.178C15.412 357.178 14.832 357.35 14.424 357.694C14.008 358.038 13.8 358.562 13.8 359.266C13.8 359.778 13.916 360.258 14.148 360.706C14.38 361.154 14.696 361.578 15.096 361.978L24 361.978L24 364.942L6.168 364.942L6.168 361.978L13.008 361.978Z" fill="#717171"/>
<rect x="52" y="61" width="2" height="420" fill="#717171"/>
<rect x="52" y="480" width="872" height="2" fill="#717171"/>
<path d="M351.793 451.793C351.402 452.183 351.402 452.817 351.793 453.207L358.157 459.571C358.547 459.962 359.181 459.962 359.571 459.571C359.962 459.181 359.962 458.547 359.571 458.157L353.914 452.5L359.571 446.843C359.962 446.453 359.962 445.819 359.571 445.429C359.181 445.038 358.547 445.038 358.157 445.429L351.793 451.793ZM402.5 451.5L352.5 451.5L352.5 453.5L402.5 453.5L402.5 451.5Z" fill="#717171"/>
<path d="M625.207 451.793C625.598 452.183 625.598 452.817 625.207 453.207L618.843 459.571C618.453 459.962 617.819 459.962 617.429 459.571C617.038 459.181 617.038 458.547 617.429 458.157L623.086 452.5L617.429 446.843C617.038 446.453 617.038 445.819 617.429 445.429C617.819 445.038 618.453 445.038 618.843 445.429L625.207 451.793ZM574.5 451.5L624.5 451.5L624.5 453.5L574.5 453.5L574.5 451.5Z" fill="#717171"/>
</svg>
